Analysis end date — aendt • mighty.standards
…
Outputs

AENDT

AENDTF

    Examples

x <- pharmaversesdtm::ae |>
  dplyr::select(USUBJID, AEENDTC) |>
  aendt("AEENDTC")

print(x)
#> # A tibble: 1,191 × 4
#>    USUBJID     AEENDTC    AENDT      AENDTF
#>    <chr>       <chr>      <date>     <chr> 
#>  1 01-701-1015 NA         NA         NA    
#>  2 01-701-1015 NA         NA         NA    
#>  3 01-701-1015 2014-01-11 2014-01-11 NA    
#>  4 01-701-1023 NA         NA         NA    
#>  5 01-701-1023 2012-08-30 2012-08-30 NA    
#>  6 01-701-1023 NA         NA         NA    
#>  7 01-701-1023 2012-08-30 2012-08-30 NA    
#>  8 01-701-1028 NA         NA         NA    
#>  9 01-701-1028 NA         NA         NA    
#> 10 01-701-1034 NA         NA         NA    
#> # ℹ 1,181 more rows
…
