Assign — assigned • mighty.standards
…
Depends

nothing.not

Outputs

{variable}

    Examples

pharmaverseadam::adsl |>
  dplyr::select(USUBJID) |>
  assigned(variable = "STUDYID", value = "STUDY001")
#> # A tibble: 306 × 2
#>    USUBJID     STUDYID 
#>    <chr>       <chr>   
#>  1 01-701-1015 STUDY001
#>  2 01-701-1023 STUDY001
#>  3 01-701-1028 STUDY001
#>  4 01-701-1033 STUDY001
#>  5 01-701-1034 STUDY001
#>  6 01-701-1047 STUDY001
#>  7 01-701-1057 STUDY001
#>  8 01-701-1097 STUDY001
#>  9 01-701-1111 STUDY001
#> 10 01-701-1115 STUDY001
#> # ℹ 296 more rows
…
