Treatment-emergent flag — trtemfl • mighty.standards
…
.self.TRTSDT

.self.TRTEDT

Outputs

TRTEMFL

    Examples

pharmaverseadam::adae |> 
  dplyr::select(ASTDT, AENDT, TRTSDT, TRTEDT) |> 
  trtemfl()
#> # A tibble: 1,191 × 5
#>    ASTDT      AENDT      TRTSDT     TRTEDT     TRTEMFL
#>    <date>     <date>     <date>     <date>     <chr>  
#>  1 2014-01-03 NA         2014-01-02 2014-07-02 Y      
#>  2 2014-01-03 NA         2014-01-02 2014-07-02 Y      
#>  3 2014-01-09 2014-01-11 2014-01-02 2014-07-02 Y      
#>  4 2012-08-07 NA         2012-08-05 2012-09-01 Y      
#>  5 2012-08-07 2012-08-30 2012-08-05 2012-09-01 Y      
#>  6 2012-08-07 2012-08-30 2012-08-05 2012-09-01 Y      
#>  7 2012-08-26 NA         2012-08-05 2012-09-01 Y      
#>  8 2013-07-21 NA         2013-07-19 2014-01-14 Y      
#>  9 2013-08-08 NA         2013-07-19 2014-01-14 Y      
#> 10 2014-08-27 NA         2014-07-01 2014-12-30 Y      
#> # ℹ 1,181 more rows
…
